0.0,0.5,1.0,0.0
0.0,0.5,1.0,0.0
0.0,0.5,1.0,0.0
0.0,0.5,1.0,0.0
0.0044632786568270435,0.4923076923076923,1.0,0.0
0.017853114627308174,0.4692307692307692,1.0,0.0
0.04463278656827044,0.423076923076923,1.0,0.0
0.08926557313654088,0.3604395604395604,1.0,0.0
0.15292311375260684,0.28791208791208783,1.0,0.0
0.23677704783695566,0.212087912087912,1.0,0.0
0.3419990148100747,0.13956043956043945,1.0,0.0
0.4697606540924513,0.0769230769230768,1.0,0.0
0.6212336051045728,0.03076923076923064,1.0,0.0
0.7975895072669266,0.007692307692307694,1.0,0.0
1.0,0.0,1.0,0.0
1.2327220590469439,0.0,1.0,0.0
1.500012660150909,0.0,1.0,0.0
1.8061287790550464,0.0,1.0,0.0
2.1553273915025066,0.0,1.0,0.0
2.551865473236441,0.0,1.0,0.0
3.0,0.0,1.0,0.0
3.4727379475363347,0.02237654320987654,1.0,0.0
3.9323694738441284,0.08950617283950615,1.0,0.0
4.341184736922064,0.19251543209876537,1.0,0.0
4.661473894768825,0.3074845679012345,1.0,0.0
4.868493473692206,0.41049382716049376,1.0,0.0
4.96875,0.47762345679012347,1.0,0.0
5.0,0.5,1.0,0.0
